type,name,survived,age,boats
1,"Allen, Miss. Elisabeth Walton",1,29,2
0,Allison,1,14.5,11
1,"Anderson, Mr. Harry",1,48,3
0,Andrews,1,51.0,10
1,"Appleton, Mrs. Edward Dale (Charlotte Lamson)",1,53,D
1,"Artagaveytia, Mr. Ramon",0,71,
0,Astor,1,32.5,4
1,"Aubart, Mme. Leontine Pauline",1,24,9
1,"Barber, Miss. Ellen ""Nellie""",1,26,6
1,"Barkworth, Mr. Algernon Henry Wilson",1,80,B
1,"Baumann, Mr. John D",0,,
0,Baxter,1,37.0,6
1,"Bazzani, Miss. Albina",1,32,8
1,"Beattie, Mr. Thomson",0,36,A
0,Beckwith,2,42.0,"5,5"
1,"Behr, Mr. Karl Howell",1,26,5
1,"Bidois, Miss. Rosalie",1,42,4
1,"Bird, Miss. Ellen",1,29,8
1,"Birnbaum, Mr. Jakob",0,25,
0,Bishop,2,22.0,"7,7"
1,"Bissette, Miss. Amelia",1,35,8
1,"Bjornstrom-Steffansson, Mr. Mauritz Hakan",1,28,D
1,"Blackwell, Mr. Stephen Weart",0,45,
1,"Blank, Mr. Henry",1,40,7
0,Bonnell,2,44.0,"8,8"
1,"Borebank, Mr. John James",0,42,
1,"Bowen, Miss. Grace Scott",1,45,4
1,"Bowerman, Miss. Elsie Edith",1,22,6
1,"Bradley, Mr. George (""George Arthur Brayton"")",1,,9
1,"Brady, Mr. John Bertram",0,41,
1,"Brandeis, Mr. Emil",0,48,
1,"Brewe, Dr. Arthur Jackson",0,,
0,Brown,2,51.5,"6,D"
1,"Bucknell, Mrs. William Robert (Emma Eliza Ward)",1,60,8
1,"Burns, Miss. Elizabeth Margaret",1,41,3
1,"Butt, Major. Archibald Willingham",0,45,
1,"Cairns, Mr. Alexander",0,,
1,"Calderhead, Mr. Edward Pennington",1,42,5
1,"Candee, Mrs. Edward (Helen Churchill Hungerford)",1,53,6
0,Cardeza,2,47.0,"3,3"
1,"Carlsson, Mr. Frans Olof",0,33,
0,Carrau,0,22.5,
0,Carter,4,24.2,"4,4,C,4"
1,"Case, Mr. Howard Brown",0,49,
1,"Cassebeer, Mrs. Henry Arthur Jr (Eleanor Genevieve Fosdick)",1,,5
0,Cavendish,1,56.0,6
0,Chaffee,1,46.5,4
0,Chambers,2,30.0,"5,5"
1,"Chaudanson, Miss. Victorine",1,36,4
1,"Cherry, Miss. Gladys",1,30,8
1,"Chevre, Mr. Paul Romaine",1,45,7
1,"Chibnall, Mrs. (Edith Martha Bowerman)",1,,6
1,"Chisholm, Mr. Roderick Robert Crispin",0,,
0,Clark,1,26.5,4
1,"Cleaver, Miss. Alice",1,22,11
1,"Clifford, Mr. George Quincy",0,,
1,"Colley, Mr. Edward Pomeroy",0,47,
0,Compton,2,46.7,"14,14"
1,"Cornell, Mrs. Robert Clifford (Malvina Helen Lamson)",1,55,2
1,"Crafton, Mr. John Bertram",0,,
0,Crosby,2,56.7,"7,7"
0,Cumings,1,38.5,4
1,"Daly, Mr. Peter Denis ",1,51,5 9
1,"Daniel, Mr. Robert Williams",1,27,3
1,"Daniels, Miss. Sarah",1,33,8
0,Davidson,1,29.0,3
0,Dick,2,24.0,"3,3"
0,Dodge,3,37.0,"13,5,5"
0,Douglas,2,41.7,"6,2"
0,Duff Gordon,2,48.5,"1,1"
1,"Dulles, Mr. William Crothers",0,39,
1,"Earnshaw, Mrs. Boulton (Olive Potter)",1,23,7
1,"Endres, Miss. Caroline Louise",1,38,4
1,"Eustis, Miss. Elizabeth Mussey",1,54,4
1,"Evans, Miss. Edith Corse",0,36,
1,"Farthing, Mr. John",0,,
1,"Flegenheim, Mrs. Alfred (Antoinette)",1,,7
1,"Fleming, Miss. Margaret",1,,4
1,"Flynn, Mr. John Irwin (""Irving"")",1,36,5
1,"Foreman, Mr. Benjamin Laventall",0,30,
0,Fortune,4,36.3,"10,10,10,10"
1,"Francatelli, Miss. Laura Mabel",1,30,1
1,"Franklin, Mr. Thomas Parham",0,,
0,Frauenthal,3,,"5,5,5"
1,"Frolicher, Miss. Hedwig Margaritha",1,22,5
0,Frolicher-Stehli,2,54.0,"5,5"
1,"Fry, Mr. Richard",0,,
0,Futrelle,1,36.0,D
1,"Gee, Mr. Arthur H",0,47,
1,"Geiger, Miss. Amalie",1,35,4
0,Gibson,2,33.5,"7,7"
1,"Giglio, Mr. Victor",0,24,
0,Goldenberg,2,,"5,5"
1,"Goldschmidt, Mr. George B",0,71,
1,"Gracie, Col. Archibald IV",1,53,B
0,Graham,2,38.3,"3,3"
0,Greenfield,2,34.0,"7,7"
1,"Guggenheim, Mr. Benjamin",0,46,
0,Harder,2,25.0,"5,5"
0,Harper,2,48.5,"3,3"
1,"Harrington, Mr. Charles H",0,,
0,Harris,1,40.0,D
1,"Harrison, Mr. William",0,40,
1,"Hassab, Mr. Hammad",1,27,3
1,"Hawksford, Mr. Walter James",1,,3
0,Hays,2,43.7,"7,3"
1,"Head, Mr. Christopher",0,42,
1,"Hilliard, Mr. Herbert Henry",0,,
1,"Hipkins, Mr. William Edward",0,55,
0,Hippach,2,30.0,"4,4"
1,"Hogeboom, Mrs. John C (Anna Andrews)",1,51,10
0,Holverson,1,38.5,8
1,"Homer, Mr. Harry (""Mr E Haven"")",1,35,15
0,Hoyt,2,,"D,14,D"
1,"Icard, Miss. Amelie",1,38,6
1,"Isham, Miss. Ann Elizabeth",0,50,
1,"Ismay, Mr. Joseph Bruce",1,49,C
1,"Jones, Mr. Charles Cresson",0,46,
1,"Julian, Mr. Henry Forbes",0,50,
1,"Keeping, Mr. Edwin",0,32,
1,"Kent, Mr. Edward Austin",0,58,
0,Kenyon,1,,8
0,Kimball,2,43.5,"5,5"
1,"Klaber, Mr. Herman",0,,
1,"Kreuchen, Miss. Emilie",1,39,2
1,"Leader, Dr. Alice (Farnham)",1,49,8
1,"LeRoy, Miss. Bertha",1,30,2
1,"Lesurer, Mr. Gustave J",1,35,3
1,"Lewy, Mr. Ervin G",0,,
1,"Lindeberg-Lind, Mr. Erik Gustaf (""Mr Edward Lingrey"")",0,42,
1,"Lindstrom, Mrs. Carl Johan (Sigrid Posse)",1,55,6
0,Lines,2,33.5,"9,9"
1,"Long, Mr. Milton Clyde",0,29,
1,"Longley, Miss. Gretchen Fiske",1,21,10
1,"Loring, Mr. Joseph Holland",0,30,
1,"Lurette, Miss. Elise",1,58,
1,"Madill, Miss. Georgette Alexandra",1,15,2
1,"Maguire, Mr. John Edward",0,30,
1,"Maioni, Miss. Roberta",1,16,8
1,"Marechal, Mr. Pierre",1,,7
0,Marvin,1,18.5,10
1,"Mayne, Mlle. Berthe Antonine (""Mrs de Villiers"")",1,24,6
1,"McCaffry, Mr. Thomas Francis",0,46,
1,"McCarthy, Mr. Timothy J",0,54,
1,"McGough, Mr. James Robert",1,36,7
0,Meyer,1,,6
1,"Millet, Mr. Francis Davis",0,65,
0,Minahan,2,38.0,"14,14"
1,"Mock, Mr. Philipp Edmund",1,30,11
1,"Molson, Mr. Harry Markland",0,55,
1,"Moore, Mr. Clarence Bloomfield",0,47,
1,"Natsch, Mr. Charles H",0,37,
0,Newell,2,37.3,"6,6"
1,"Newsom, Miss. Helen Monypeny",1,19,5
1,"Nicholson, Mr. Arthur Ernest",0,64,
1,"Oliva y Ocana, Dona. Fermina",1,39,8
1,"Omont, Mr. Alfred Fernand",1,,7
0,Ostby,1,43.5,5
1,"Ovies y Rodriguez, Mr. Servando",0,28,
1,"Parr, Mr. William Henry Marsh",0,,
1,"Partner, Mr. Austen",0,45,
1,"Payne, Mr. Vivian Ponsonby",0,23,
0,Pears,1,25.5,8
0,Penasco y Castellana,1,17.5,8
1,"Perreault, Miss. Anne",1,30,3
1,"Peuchen, Major. Arthur Godfrey",1,52,6
1,"Porter, Mr. Walter Chamberlain",0,47,
1,"Potter, Mrs. Thomas Jr (Lily Alexenia Wilson)",1,56,7
1,"Reuchlin, Jonkheer. John George",0,38,
1,"Rheims, Mr. George Alexander Lucien",1,,A
1,"Ringhini, Mr. Sante",0,22,
1,"Robbins, Mr. Victor",0,,
1,"Robert, Mrs. Edward Scott (Elisabeth Walton McMillan)",1,43,2
1,"Roebling, Mr. Washington Augustus II",0,31,
1,"Romaine, Mr. Charles Hallace (""Mr C Rolmane"")",1,45,9
1,"Rood, Mr. Hugh Roscoe",0,,
1,"Rosenbaum, Miss. Edith Louise",1,33,11
1,"Rosenshine, Mr. George (""Mr George Thorne"")",0,46,
1,"Ross, Mr. John Hugo",0,36,
1,"Rothes, the Countess. of (Lucy Noel Martha Dyer-Edwards)",1,33,8
0,Rothschild,1,54.5,6
1,"Rowe, Mr. Alfred G",0,33,
0,Ryerson,4,32.2,"4,4,4,4"
1,"Saalfeld, Mr. Adolphe",1,,3
1,"Sagesser, Mlle. Emma",1,24,9
1,"Salomon, Mr. Abraham L",1,,1
1,"Schabert, Mrs. Paul (Emma Mock)",1,35,11
1,"Serepeca, Miss. Augusta",1,30,4
1,"Seward, Mr. Frederic Kimber",1,34,7
1,"Shutes, Miss. Elizabeth W",1,40,3
1,"Silverthorne, Mr. Spencer Victor",1,35,5
0,Silvey,1,44.5,11
1,"Simonius-Blumer, Col. Oberst Alfons",1,56,3
1,"Sloper, Mr. William Thompson",1,28,7
1,"Smart, Mr. John Montgomery",0,56,
0,Smith,1,,6
0,Snyder,2,23.5,"7,7"
0,Spedden,3,30.3,"3,3,3"
0,Spencer,1,,6
1,"Stahelin-Maeglin, Dr. Max",1,32,3
1,"Stead, Mr. William Thomas",0,62,
0,Stengel,2,48.5,"1,5"
1,"Stephenson, Mrs. Walter Bertram (Martha Eustis)",1,52,4
1,"Stewart, Mr. Albert A",0,,
1,"Stone, Mrs. George Nelson (Martha Evelyn)",1,62,6
0,Straus,0,65.0,
1,"Sutton, Mr. Frederick",0,61,
1,"Swift, Mrs. Frederick Joel (Margaret Welles Barron)",1,48,8
0,Taussig,2,36.3,"8,8"
0,Taylor,2,,"5 7,5 7"
0,Thayer,2,35.0,"B,4"
1,"Thorne, Mrs. Gertrude Maybelle",1,,D
1,"Tucker, Mr. Gilbert Milligan Jr",1,31,7
1,"Uruchurtu, Don. Manuel E",0,40,
1,"Van der hoef, Mr. Wyckoff",0,61,
1,"Walker, Mr. William Anderson",0,47,
1,"Ward, Miss. Anna",1,35,3
0,Warren,1,62.0,5
1,"Weir, Col. John",0,60,
0,White,1,43.3,8
0,Wick,2,44.3,"8,8"
0,Widener,1,42.3,4
1,"Willard, Miss. Constance",1,21,8 10
0,Williams,1,36.0,A
1,"Williams-Lambert, Mr. Fletcher Fellows",0,,
1,"Wilson, Miss. Helen Alice",1,31,3
1,"Woolner, Mr. Hugh",1,,D
1,"Wright, Mr. George",0,62,
1,"Young, Miss. Marie Grice",1,36,8
0,Abelson,1,29.0,10
1,"Aldworth, Mr. Charles Augustus",0,30,
0,Andrew,0,21.5,
0,Angle,1,35.0,11
1,"Ashby, Mr. John",0,57,
1,"Bailey, Mr. Percy Andrew",0,18,
1,"Baimbrigge, Mr. Charles Robert",0,23,
1,"Ball, Mrs. (Ada E Hall)",1,36,10
1,"Banfield, Mr. Frederick James",0,28,
1,"Bateman, Rev. Robert James",0,51,
0,Beane,2,25.5,"13,13"
1,"Beauchamp, Mr. Henry James",0,28,
0,Becker,4,13.2,"11,11,13,11"
1,"Beesley, Mr. Lawrence",1,34,13
1,"Bentham, Miss. Lilian W",1,19,12
1,"Berriman, Mr. William John",0,23,
1,"Botsford, Mr. William Hull",0,26,
1,"Bowenur, Mr. Solomon",0,42,
1,"Bracken, Mr. James H",0,27,
0,Brown,3,34.8,"11,14,14"
0,Bryhl,1,22.5,12
1,"Buss, Miss. Kate",1,36,9
1,"Butler, Mr. Reginald Fenton",0,25,
1,"Byles, Rev. Thomas Roussel Davids",0,42,
1,"Bystrom, Mrs. (Karolina)",1,42,
0,Caldwell,3,16.3,"13,13,13"
1,"Cameron, Miss. Clear Annie",1,35,14
1,"Campbell, Mr. William",0,,
1,"Carbines, Mr. William",0,19,
0,Carter,0,49.0,
0,Chapman,0,39.3,
0,Christy,2,35.0,"12,12"
0,Clarke,1,28.5,14
1,"Coleridge, Mr. Reginald Charles",0,29,
1,"Collander, Mr. Erik Gustaf",0,28,
1,"Collett, Mr. Sidney C Stuart",1,24,9
0,Collyer,2,23.3,"14,14"
1,"Cook, Mrs. (Selena Rogers)",1,22,14
1,"Corbett, Mrs. Walter H (Irene Colvin)",0,30,
1,"Corey, Mrs. Percy C (Mary Phyllis Elizabeth Miller)",0,,
1,"Cotterill, Mr. Henry ""Harry""",0,21,
1,"Cunningham, Mr. Alfred Fleming",0,,
0,Davies,2,24.7,"14,14"
1,"Davis, Miss. Mary",1,28,13
1,"de Brito, Mr. Jose Joaquim",0,32,
1,"Deacon, Mr. Percy William",0,17,
0,del Carlo,1,26.5,12
1,"Denbury, Mr. Herbert",0,25,
1,"Dibden, Mr. William",0,18,
0,Doling,2,26.0,
1,"Downton, Mr. William James",0,54,
0,Drew,2,28.0,"10,10"
0,Duran y More,2,28.5,"12,12"
1,"Eitemiller, Mr. George Floyd",0,23,
1,"Enander, Mr. Ingvar",0,21,
1,"Fahlstrom, Mr. Arne Jonas",0,18,
0,Faunthorpe,1,34.5,16
1,"Fillbrook, Mr. Joseph Charles",0,18,
1,"Fox, Mr. Stanley Hubert",0,36,
1,"Frost, Mr. Anthony Wood ""Archie""",0,,
1,"Funk, Miss. Annie Clemmer",0,38,
1,"Fynney, Mr. Joseph J",0,35,
0,Gale,0,36.0,
1,"Garside, Miss. Ethel",1,34,12
1,"Gaskell, Mr. Alfred",0,16,
1,"Gavey, Mr. Lawrence",0,26,
1,"Gilbert, Mr. William",0,47,
0,Giles,0,22.0,
1,"Gill, Mr. John William",0,24,
1,"Gillespie, Mr. William Henry",0,34,
1,"Givard, Mr. Hans Kristensen",0,30,
1,"Greenberg, Mr. Samuel",0,52,
1,"Hale, Mr. Reginald",0,30,
0,Hamalainen,2,12.3,"4,4"
1,"Harbeck, Mr. William H",0,44,
0,Harper,1,17.0,11
0,Harris,1,46.0,15
0,Hart,2,31.7,"14,14"
0,Herman,3,36.2,"9,9,9"
1,"Hewlett, Mrs. (Mary D Kingcome) ",1,55,13
0,Hickman,0,25.7,
1,"Hiltunen, Miss. Marta",0,18,
0,Hocking,2,33.2,"4,4"
1,"Hodges, Mr. Henry Price",0,50,
0,Hold,1,36.5,10
1,"Hood, Mr. Ambrose Jr",0,21,
1,"Hosono, Mr. Masabumi",1,42,10
0,Howard,0,61.5,
1,"Hunt, Mr. George Henry",0,33,
1,"Ilett, Miss. Bertha",1,17,
0,Jacobsohn,1,33.0,12
1,"Jarvis, Mr. John Denzil",0,47,
0,Jefferys,0,23.0,
1,"Jenkin, Mr. Stephen Curnow",0,32,
1,"Jerwan, Mrs. Amin S (Marie Marthe Thuillard)",1,23,11
0,Kantor,1,29.0,12
1,"Karnes, Mrs. J Frank (Claire Bennett)",0,22,
0,Keane,1,,10
1,"Kelly, Mrs. Florence ""Fannie""",1,45,9
1,"Kirkland, Rev. Charles Leonard",0,57,
1,"Knight, Mr. Robert J",0,,
1,"Kvillner, Mr. Johan Henrik Johannesson",0,31,
0,Lahtinen,0,28.0,
1,"Lamb, Mr. John Joseph",0,,
0,Laroche,3,12.8,"14,14,14"
1,"Lehmann, Miss. Bertha",1,17,12
1,"Leitch, Miss. Jessie Wills",1,,11
1,"Lemore, Mrs. (Amelia Milley)",1,34,14
1,"Levy, Mr. Rene Jacques",0,36,
1,"Leyson, Mr. Robert William Norman",0,24,
1,"Lingane, Mr. John",0,61,
0,Louch,1,46.0,
1,"Mack, Mrs. (Mary)",0,57,
1,"Malachard, Mr. Noel",0,,
0,Mallet,2,18.7,"10,10"
1,"Mangiavacchi, Mr. Serafino Emilio",0,,
1,"Matthews, Mr. William John",0,30,
1,"Maybery, Mr. Frank Hubert",0,40,
1,"McCrae, Mr. Arthur Gordon",0,32,
1,"McCrie, Mr. James Matthew",0,30,
1,"McKane, Mr. Peter David",0,46,
0,Mellinger,2,27.0,"14,14"
1,"Mellors, Mr. William John",1,19,B
1,"Meyer, Mr. August",0,39,
1,"Milling, Mr. Jacob Christian",0,48,
1,"Mitchell, Mr. Henry Michael",0,70,
1,"Montvila, Rev. Juozas",0,27,
1,"Moraweck, Dr. Ernest",0,54,
1,"Morley, Mr. Henry Samuel (""Mr Henry Marshall"")",0,39,
1,"Mudd, Mr. Thomas Charles",0,16,
1,"Myles, Mr. Thomas Francis",0,62,
0,Nasser,1,23.2,
0,Navratil,2,13.8,"D,D"
1,"Nesson, Mr. Israel",0,26,
1,"Nicholls, Mr. Joseph Charles",0,19,
1,"Norman, Mr. Robert Douglas",0,28,
1,"Nourney, Mr. Alfred (""Baron von Drachstedt"")",1,20,7
1,"Nye, Mrs. (Elizabeth Ramell)",1,29,11
1,"Otter, Mr. Richard",0,39,
1,"Oxenham, Mr. Percy Thomas",1,22,13
1,"Padro y Manent, Mr. Julian",1,,9
1,"Pain, Dr. Alfred",0,23,
1,"Pallas y Castello, Mr. Emilio",1,29,9
1,"Parker, Mr. Clifford Richard",0,28,
1,"Parkes, Mr. Francis ""Frank""",0,,
1,"Parrish, Mrs. (Lutie Davis)",1,50,12
1,"Pengelly, Mr. Frederick William",0,19,
1,"Pernot, Mr. Rene",0,,
1,"Peruschitz, Rev. Joseph Maria",0,41,
0,Phillips,2,27.7,"12,11"
1,"Pinsky, Mrs. (Rosa)",1,32,9
1,"Ponesell, Mr. Martin",0,34,
1,"Portaluppi, Mr. Emilio Ilario Giuseppe",1,30,14
1,"Pulbaum, Mr. Franz",0,27,
0,Quick,3,14.3,"11,11,11"
1,"Reeves, Mr. David",0,36,
0,Renouf,1,32.0,12
1,"Reynaldo, Ms. Encarnacion",1,28,9
1,"Richard, Mr. Emile",0,23,
0,Richards,3,9.3,"4,4,4"
1,"Ridsdale, Miss. Lucy",1,50,13
1,"Rogers, Mr. Reginald Harry",0,19,
1,"Rugg, Miss. Emily",1,21,12
1,"Schmidt, Mr. August",0,26,
1,"Sedgwick, Mr. Charles Frederick Waddington",0,25,
1,"Sharp, Mr. Percival James R",0,27,
1,"Shelley, Mrs. William (Imanita Parrish Hall)",1,25,12
1,"Silven, Miss. Lyyli Karoliina",1,18,16
1,"Sincock, Miss. Maude",1,20,11
1,"Sinkkonen, Miss. Anna",1,30,10
1,"Sjostedt, Mr. Ernst Adolf",0,59,
1,"Slayter, Miss. Hilda Mary",1,30,13
1,"Slemen, Mr. Richard James",0,35,
1,"Smith, Miss. Marion Elsie",1,40,9
1,"Sobey, Mr. Samuel James Hayden",0,25,
1,"Stanton, Mr. Samuel Ward",0,41,
1,"Stokes, Mr. Philip Joseph",0,25,
1,"Swane, Mr. George",0,18,
1,"Sweet, Mr. George Frederick",0,14,
1,"Toomey, Miss. Ellen",1,50,9
1,"Troupiansky, Mr. Moses Aaron",0,23,
1,"Trout, Mrs. William H (Jessie L)",1,28,
1,"Troutt, Miss. Edwina Celia ""Winnie""",1,27,16
0,Turpin,0,28.0,
1,"Veal, Mr. James",0,40,
1,"Walcroft, Miss. Nellie",1,31,14
0,Ware,1,28.0,10
1,"Watson, Mr. Ennis Hastings",0,,
0,Watt,2,26.0,"9,9"
1,"Webber, Miss. Susan",1,32,12
0,Weisz,1,28.0,10
0,Wells,3,11.7,"14,14,14"
0,West,3,18.7,"10,10,10"
1,"Wheadon, Mr. Edward H",0,66,
1,"Wheeler, Mr. Edwin ""Frederick""",0,,
1,"Wilhelms, Mr. Charles",1,31,9
1,"Williams, Mr. Charles Eugene",1,,14
1,"Wright, Miss. Marion",1,26,9
1,"Yrois, Miss. Henriette (""Mrs Harbeck"")",0,24,
1,"Abbing, Mr. Anthony",0,42,
0,Abbott,1,21.3,A
0,Abelseth,2,20.5,"16,A"
1,"Abrahamsson, Mr. Abraham August Johannes",1,20,15
1,"Abrahim, Mrs. Joseph (Sophie Halaut Easu)",1,18,C
1,"Adahl, Mr. Mauritz Nils Martin",0,30,
1,"Adams, Mr. John",0,26,
1,"Ahlin, Mrs. Johan (Johanna Persdotter Larsson)",0,40,
0,Aks,2,9.4,"11,13"
1,"Albimona, Mr. Nassef Cassem",1,26,15
1,"Alexander, Mr. William",0,26,
1,"Alhomaki, Mr. Ilmari Rudolf",0,20,
0,Ali,0,24.5,
1,"Allen, Mr. William Henry",0,35,
1,"Allum, Mr. Owen George",0,18,
1,"Andersen, Mr. Albert Karvin",0,32,
1,"Andersen-Jensen, Miss. Carla Christine Nielsine",1,19,16
0,Andersson,2,17.9,"D,A"
1,"Andreasson, Mr. Paul Edvin",0,20,
1,"Angheloff, Mr. Minko",0,26,
0,Arnold-Franchi,0,21.5,
1,"Aronsson, Mr. Ernst Axel Algot",0,24,
1,"Asim, Mr. Adola",0,35,
0,Asplund,4,17.0,"15,15,13,15"
1,"Assaf Khalil, Mrs. Mariana (""Miriam"")",1,45,C
1,"Assaf, Mr. Gerios",0,21,
1,"Assam, Mr. Ali",0,23,
0,Attalah,0,23.5,
1,"Augustsson, Mr. Albert",0,23,
1,"Ayoub, Miss. Banoura",1,13,C
1,"Baccos, Mr. Raffull",0,20,
0,Backstrom,1,32.5,D
0,Baclini,4,7.6,"C,C,C,C"
1,"Badman, Miss. Emily Louisa",1,18,C
1,"Badt, Mr. Mohamed",0,40,
1,"Balkic, Mr. Cerin",0,26,
1,"Barah, Mr. Hanna Assi",1,20,15
0,Barbara,0,31.5,
1,"Barry, Miss. Julia",0,27,
1,"Barton, Mr. David John",0,22,
1,"Beavan, Mr. William Thomas",0,19,
1,"Bengtsson, Mr. John Viktor",0,26,
1,"Berglund, Mr. Karl Ivar Sven",0,22,
0,Betros,0,,
1,"Bing, Mr. Lee",1,32,C
1,"Birkeland, Mr. Hans Martin Monsen",0,21,
1,"Bjorklund, Mr. Ernst Herbert",0,18,
1,"Bostandyeff, Mr. Guentcho",0,26,
0,Boulos,0,,
0,Bourke,0,,
1,"Bowen, Mr. David John ""Dai""",0,21,
1,"Bradley, Miss. Bridget Delia",1,22,13
1,"Braf, Miss. Elin Ester Maria",0,20,
0,Braund,0,25.5,
1,"Brobeck, Mr. Karl Rudolf",0,22,
1,"Brocklebank, Mr. William Alfred",0,35,
0,Buckley,1,19.8,13
1,"Burke, Mr. Jeremiah",0,19,
1,"Burns, Miss. Mary Delia",0,18,
0,Cacic,0,26.8,
0,Calic,0,17.0,
0,Canavan,0,21.0,
1,"Cann, Mr. Ernest Charles",0,21,
0,Caram,0,,
0,Carlsson,0,26.0,
0,Carr,1,26.5,16
1,"Carver, Mr. Alfred John",0,28,
1,"Celotti, Mr. Francesco",0,24,
1,"Charters, Mr. David",0,21,
1,"Chip, Mr. Chang",1,32,C
1,"Christmann, Mr. Emil",0,29,
0,Chronopoulos,0,22.0,
1,"Coelho, Mr. Domingos Fernandeo",0,20,
1,"Cohen, Mr. Gurshon ""Gus""",1,18,12
1,"Colbert, Mr. Patrick",0,24,
0,Coleff,0,30.0,
1,"Conlon, Mr. Thomas Henry",0,31,
1,"Connaghton, Mr. Michael",0,31,
0,Connolly,1,26.0,13
1,"Connors, Mr. Patrick",0,70,
1,"Cook, Mr. Jacob",0,43,
0,Cor,0,27.0,
1,"Corn, Mr. Harry",0,30,
0,Coutts,3,16.0,"2,2,2"
1,"Coxon, Mr. Daniel",0,59,
1,"Crease, Mr. Ernest James",0,19,
0,Cribb,1,30.5,12
1,"Culumovic, Mr. Jeso",0,17,
1,"Daher, Mr. Shedid",0,22,
1,"Dahl, Mr. Karl Edwart",1,45,15
1,"Dahlberg, Miss. Gerda Ulrika",0,22,
1,"Dakic, Mr. Branko",0,19,
0,Daly,2,29.5,"15,13 15 B"
0,Danbom,0,20.8,
1,"Danoff, Mr. Yoto",0,27,
1,"Dantcheff, Mr. Ristiu",0,25,
0,Davies,0,21.0,
0,Davison,1,,16
0,de Messemaeker,2,36.2,"15,13"
1,"de Mulder, Mr. Theodore",1,30,11
1,"de Pelsmaeker, Mr. Alfons",0,16,
0,Dean,3,15.0,"10,10,10"
1,"Delalic, Mr. Redjo",0,25,
1,"Demetri, Mr. Marinko",0,,
1,"Denkoff, Mr. Mitto",0,,
0,Dennis,0,29.0,
1,"Devaney, Miss. Margaret Delia",1,19,C
1,"Dika, Mr. Mirko",0,17,
1,"Dimic, Mr. Jovan",0,42,
1,"Dintcheff, Mr. Valtcho",0,43,
1,"Doharr, Mr. Tannous",0,,
1,"Dooley, Mr. Patrick",0,32,
1,"Dorking, Mr. Edward Arthur",1,19,B
1,"Dowdell, Miss. Elizabeth",1,30,13
1,"Doyle, Miss. Elizabeth",0,24,
1,"Drapkin, Miss. Jennie",1,23,
1,"Drazenoic, Mr. Jozef",0,33,
1,"Duane, Mr. Frank",0,65,
1,"Duquemin, Mr. Joseph",1,24,D
0,Dyker,1,22.5,16
1,"Edvardsson, Mr. Gustaf Hjalmar",0,18,
1,"Eklund, Mr. Hans Linus",0,16,
1,"Ekstrom, Mr. Johan",0,45,
0,Elias,0,,
1,"Elsbury, Mr. William James",0,47,
1,"Emanuel, Miss. Virginia Ethel",1,5,13
1,"Emir, Mr. Farred Chehab",0,,
1,"Everett, Mr. Thomas James",0,40,
1,"Farrell, Mr. James",0,40,
1,"Finoli, Mr. Luigi",1,,15
1,"Fischer, Mr. Eberhard Thelander",0,18,
1,"Fleming, Miss. Honora",0,,
0,Flynn,0,,
0,Foley,0,,
1,"Foo, Mr. Choong",1,,13
0,Ford,0,,
1,"Fox, Mr. Patrick",0,,
1,"Franklin, Mr. Charles (Charles Fardon)",0,,
1,"Gallagher, Mr. Martin",0,25,
1,"Garfirth, Mr. John",0,,
1,"Gheorgheff, Mr. Stanio",0,,
1,"Gilinski, Mr. Eliezer",0,22,
1,"Gilnagh, Miss. Katherine ""Katie""",1,16,16
1,"Glynn, Miss. Mary Agatha",1,,13
0,Goldsmith,2,28.5,"C D,C D"
1,"Goncalves, Mr. Manuel Estanslas",0,38,
0,Goodwin,0,18.0,
1,"Green, Mr. George Henry",0,51,
1,"Gronnestad, Mr. Daniel Danielsen",0,32,
1,"Guest, Mr. Robert",0,,
0,Gustafsson,0,26.0,
1,"Haas, Miss. Aloisia",0,24,
1,"Hagardon, Miss. Kate",0,17,
0,Hagland,0,,
0,Hakkarainen,1,26.0,15
1,"Hampe, Mr. Leon",0,20,
1,"Hanna, Mr. Mansour",0,23,
0,Hansen,1,33.2,11
1,"Harknett, Miss. Alice Phoebe",0,,
1,"Harmer, Mr. Abraham (David Lishin)",0,25,B
1,"Hart, Mr. Henry",0,,
1,"Hassan, Mr. Houssein G N",0,11,
1,"Healy, Miss. Hanora ""Nora""",1,,16
1,"Hedman, Mr. Oskar Arvid",1,27,15
1,"Hee, Mr. Ling",1,,C
1,"Hegarty, Miss. Hanora ""Nora""",0,18,
1,"Heikkinen, Miss. Laina",1,26,
1,"Heininen, Miss. Wendla Maria",0,23,
1,"Hellstrom, Miss. Hilda Maria",1,22,C
1,"Hendekovic, Mr. Ignjac",0,28,
1,"Henriksson, Miss. Jenny Lovisa",0,28,
1,"Henry, Miss. Delia",0,,
0,Hirvonen,2,12.0,"15,15"
1,"Holm, Mr. John Fredrik Alexander",0,43,
1,"Holthen, Mr. Johan Martin",0,28,
1,"Honkanen, Miss. Eliina",1,27,
1,"Horgan, Mr. John",0,,
1,"Howard, Miss. May Elizabeth",1,,C
1,"Humblen, Mr. Adolf Mathias Nicolai Olsen",0,42,
1,"Hyman, Mr. Abraham",1,,C
1,"Ibrahim Shawah, Mr. Yousseff",0,30,
1,"Ilieff, Mr. Ylio",0,,
0,Ilmakangas,0,26.0,
1,"Ivanoff, Mr. Kanio",0,,
1,"Jalsevac, Mr. Ivan",1,29,15
1,"Jansson, Mr. Carl Olof",1,21,A
1,"Jardin, Mr. Jose Neto",0,,
0,Jensen,0,28.3,
1,"Jermyn, Miss. Annie",1,,D
1,"Johannesen-Bratthammer, Mr. Bernt",1,,13
1,"Johanson, Mr. Jakob Alfred",0,34,
1,"Johansson Palmquist, Mr. Oskar Leander",1,26,15
0,Johansson,0,28.8,
0,Johnson,3,22.2,"15,15,15"
0,Johnston,0,,
1,"Jonkoff, Mr. Lalio",0,23,
0,Jonsson,1,29.5,15
0,Jussila,1,24.3,15
1,"Kallio, Mr. Nikolai Erland",0,17,
1,"Kalvik, Mr. Johannes Halvorsen",0,21,
1,"Karaic, Mr. Milan",0,30,
0,Karlsson,1,25.3,13
0,Karun,2,21.5,"15,15"
1,"Kassem, Mr. Fared",0,,
1,"Katavelas, Mr. Vassilios (""Catavelas Vassilios"")",0,18,
1,"Keane, Mr. Andrew ""Andy""",0,,
1,"Keefe, Mr. Arthur",0,,A
0,Kelly,2,,"16,D"
1,"Kennedy, Mr. John",1,,
0,Khalil,0,,
0,Kiernan,0,,
1,"Kilgannon, Mr. Thomas J",0,,
0,Kink,0,24.0,
0,Kink-Heilmann,3,19.7,"2,2,2"
0,Klasen,0,18.3,
1,"Kraeff, Mr. Theodor",0,,
1,"Krekorian, Mr. Neshan",1,25,10
1,"Lahoud, Mr. Sarkis",0,,
1,"Laitinen, Miss. Kristina Sofia",0,37,
1,"Laleff, Mr. Kristo",0,,
0,Lam,1,,C
1,"Landergren, Miss. Aurora Adelia",1,22,13
1,"Lane, Mr. Patrick",0,,
1,"Lang, Mr. Fang",1,26,14
0,Larsson,0,29.0,
1,"Larsson-Rondberg, Mr. Edvard A",0,22,
1,"Leeni, Mr. Fahim (""Philip Zenni"")",1,22,6
0,Lefebre,0,,
1,"Leinonen, Mr. Antti Gustaf",0,32,
1,"Lemberopolous, Mr. Peter L",0,34,
0,Lennon,0,,
1,"Leonard, Mr. Lionel",0,36,
1,"Lester, Mr. James",0,39,
1,"Lievens, Mr. Rene Aime",0,24,
1,"Lindahl, Miss. Agda Thorilda Viktoria",0,25,
1,"Lindblom, Miss. Augusta Charlotta",0,45,
0,Lindell,0,33.0,"A,A"
1,"Lindqvist, Mr. Eino William",1,20,15
1,"Linehan, Mr. Michael",0,,
1,"Ling, Mr. Lee",0,28,
1,"Lithman, Mr. Simon",0,,
0,Lobb,0,28.0,
1,"Lockyer, Mr. Edward",0,,
1,"Lovell, Mr. John Hall (""Henry"")",0,20,
1,"Lulic, Mr. Nikola",1,27,15
1,"Lundahl, Mr. Johan Svensson",0,51,
1,"Lundin, Miss. Olga Elida",1,23,10
1,"Lundstrom, Mr. Thure Edvin",1,32,15
1,"Lyntakoff, Mr. Stanko",0,,
1,"MacKay, Mr. George William",0,,
1,"Madigan, Miss. Margaret ""Maggie""",1,,15
1,"Madsen, Mr. Fridtjof Arne",1,24,13
1,"Maenpaa, Mr. Matti Alexanteri",0,22,
0,Mahon,0,,
1,"Maisner, Mr. Simon",0,,
1,"Makinen, Mr. Kalle Edvard",0,29,
1,"Mamee, Mr. Hanna",1,,15
1,"Mangan, Miss. Mary",0,30,
1,"Mannion, Miss. Margareth",1,,16
1,"Mardirosian, Mr. Sarkis",0,,
1,"Markoff, Mr. Marin",0,35,
1,"Markun, Mr. Johann",0,33,
1,"Masselmani, Mrs. Fatima",1,,C
1,"Matinoff, Mr. Nicola",0,,
1,"McCarthy, Miss. Catherine ""Katie""",1,,15 16
1,"McCormack, Mr. Thomas Joseph",1,,
0,McCoy,3,,"16,16,16"
1,"McDermott, Miss. Brigdet Delia",1,,13
1,"McEvoy, Mr. Michael",0,,
1,"McGovern, Miss. Mary",1,,13
0,McGowan,1,25.0,
1,"McMahon, Mr. Martin",0,,
0,McNamee,0,21.5,
1,"McNeill, Miss. Bridget",0,,
1,"Meanwell, Miss. (Marion Ogden)",0,,
1,"Meek, Mrs. Thomas (Annie Louise Rowley)",0,,
1,"Meo, Mr. Alfonzo",0,55,
1,"Mernagh, Mr. Robert",0,,
1,"Midtsjo, Mr. Karl Albert",1,21,15
1,"Miles, Mr. Frank",0,,
1,"Mineff, Mr. Ivan",0,24,
1,"Minkoff, Mr. Lazar",0,21,
1,"Mionoff, Mr. Stoytcho",0,28,
1,"Mitkoff, Mr. Mito",0,,
1,"Mockler, Miss. Helen Mary ""Ellie""",1,,16
1,"Moen, Mr. Sigurd Hansen",0,25,
0,Moor,2,16.5,"14,14"
1,"Moore, Mr. Leonard Charles",0,,
0,Moran,1,,16
1,"Morley, Mr. William",0,34,
1,"Morrow, Mr. Thomas Rowan",0,,
1,"Moss, Mr. Albert Johan",1,,B
0,Moubarek,3,,"C,C,C"
1,"Moussa, Mrs. (Mantoura Boulos)",1,,
1,"Moutal, Mr. Rahamin Haim",0,,
1,"Mullens, Miss. Katherine ""Katie""",1,,16
1,"Mulvihill, Miss. Bertha E",1,24,15
1,"Murdlin, Mr. Joseph",0,,
0,Murphy,3,,"16,16,16"
1,"Myhrman, Mr. Pehr Fabian Oliver Malkolm",0,18,
1,"Naidenoff, Mr. Penko",0,22,
1,"Najib, Miss. Adele Kiamie ""Jane""",1,15,C
0,Nakid,3,13.3,"C,C,C"
1,"Nancarrow, Mr. William Henry",0,33,
1,"Nankoff, Mr. Minko",0,,
1,"Nasr, Mr. Mustafa",0,,
1,"Naughton, Miss. Hannah",0,,
1,"Nenkoff, Mr. Christo",0,,
0,Nicola-Yarred,2,13.0,"C,C"
1,"Nieminen, Miss. Manta Josefina",0,29,
1,"Niklasson, Mr. Samuel",0,28,
0,Nilsson,2,21.7,"D,13"
1,"Nirva, Mr. Iisakki Antino Aijo",0,41,
1,"Niskanen, Mr. Juha",1,39,9
1,"Nosworthy, Mr. Richard Cater",0,21,
1,"Novel, Mr. Mansouer",0,28,
1,"Nysten, Miss. Anna Sofia",1,22,13
1,"Nysveen, Mr. Johan Hansen",0,61,
0,O'Brien,1,,
1,"O'Connell, Mr. Patrick D",0,,
0,O'Connor,0,,
1,"Odahl, Mr. Nils Martin",0,23,
1,"O'Donoghue, Ms. Bridget",0,,
1,"O'Driscoll, Miss. Bridget",1,,D
1,"O'Dwyer, Miss. Ellen ""Nellie""",1,,
1,"Ohman, Miss. Velin",1,22,C
1,"O'Keefe, Mr. Patrick",1,,B
1,"O'Leary, Miss. Hanora ""Norah""",1,,13
0,Olsen,1,,13
0,Olsson,1,30.3,A
1,"Olsvigen, Mr. Thor Anderson",0,20,
0,Oreskovic,0,21.0,
1,"Osen, Mr. Olaf Elon",0,16,
1,"Osman, Mrs. Mara",1,31,
1,"O'Sullivan, Miss. Bridget Mary",0,,
0,Palsson,0,9.6,
0,Panula,0,13.5,
1,"Pasic, Mr. Jakob",0,21,
1,"Patchett, Mr. George",0,19,
1,"Paulner, Mr. Uscher",0,,
1,"Pavlovic, Mr. Stefo",0,32,
0,Peacock,0,9.9,
1,"Pearce, Mr. Ernest",0,,
1,"Pedersen, Mr. Olaf",0,,
1,"Peduzzi, Mr. Joseph",0,,
1,"Pekoniemi, Mr. Edvard",0,21,
1,"Peltomaki, Mr. Nikolai Johannes",0,25,
1,"Perkin, Mr. John Henry",0,22,
1,"Persson, Mr. Ernst Ulrik",1,25,15
0,Peter,3,,"C,D,D"
1,"Peters, Miss. Katie",0,,
1,"Petersen, Mr. Marius",0,24,
1,"Petranec, Miss. Matilda",0,28,
0,Petroff,0,,
1,"Petterson, Mr. Johan Emil",0,25,
1,"Pettersson, Miss. Ellen Natalia",0,18,
1,"Pickard, Mr. Berk (Berk Trembisky)",1,32,9
1,"Plotcharsky, Mr. Vasil",0,,
0,Pokrnic,0,20.5,
1,"Radeff, Mr. Alexander",0,,
1,"Rasmussen, Mrs. (Lena Jacobsen Solvang)",0,,
1,"Razi, Mr. Raihed",0,,
1,"Reed, Mr. James George",0,,
1,"Rekic, Mr. Tido",0,38,
1,"Reynolds, Mr. Harold J",0,21,
0,Rice,0,11.7,
1,"Riihivouri, Miss. Susanna Juhantytar ""Sanni""",0,22,
1,"Rintamaki, Mr. Matti",0,35,
1,"Riordan, Miss. Johanna ""Hannah""",1,,13
0,Risien,0,,
0,Robins,0,48.5,
1,"Rogers, Mr. William John",0,,
1,"Rommetvedt, Mr. Knud Paust",0,,
0,Rosblom,0,20.3,
1,"Roth, Miss. Sarah A",1,,C
1,"Rouse, Mr. Richard Henry",0,50,
1,"Rush, Mr. Alfred George John",0,16,
0,Ryan,1,,14
0,Saad,0,,
1,"Saade, Mr. Jean Nassr",0,,
1,"Sadlier, Mr. Matthew",0,,
1,"Sadowitz, Mr. Harry",0,,
1,"Saether, Mr. Simon Sivertsen",0,38,
0,Sage,0,,
1,"Salander, Mr. Karl Johan",0,24,
1,"Salkjelsvik, Miss. Anna Kristine",1,21,C
1,"Salonen, Mr. Johan Werner",0,39,
0,Samaan,0,,
0,Sandstrom,3,9.7,"13,13,13"
1,"Sap, Mr. Julius",1,25,11
1,"Saundercock, Mr. William Henry",0,20,
1,"Sawyer, Mr. Frederick Charles",0,24,
1,"Scanlan, Mr. James",0,,
1,"Sdycoff, Mr. Todor",0,,
1,"Shaughnessy, Mr. Patrick",0,,
1,"Sheerlinck, Mr. Jan Baptist",1,29,11
1,"Shellard, Mr. Frederick William",0,,
1,"Shine, Miss. Ellen Natalia",1,,
1,"Shorney, Mr. Charles Joseph",0,,
1,"Simmons, Mr. John",0,,
1,"Sirayanian, Mr. Orsen",0,22,
1,"Sirota, Mr. Maurice",0,,
1,"Sivic, Mr. Husein",0,40,
1,"Sivola, Mr. Antti Wilhelm",0,21,
1,"Sjoblom, Miss. Anna Sofia",1,18,16
0,Skoog,0,18.3,
1,"Slabenoff, Mr. Petco",0,,
1,"Slocovski, Mr. Selman Francis",0,,
1,"Smiljanic, Mr. Mile",0,,
1,"Smith, Mr. Thomas",0,,
1,"Smyth, Miss. Julia",1,,13
1,"Soholt, Mr. Peter Andreas Lauritz Andersen",0,19,
1,"Somerton, Mr. Francis William",0,30,
1,"Spector, Mr. Woolf",0,,
1,"Spinner, Mr. Henry John",0,32,
1,"Staneff, Mr. Ivan",0,,
1,"Stankovic, Mr. Ivan",0,33,
0,Stanley,1,22.0,C
1,"Storey, Mr. Thomas",0,60,
1,"Stoytcheff, Mr. Ilia",0,19,
1,"Strandberg, Miss. Ida Sofia",0,22,
1,"Stranden, Mr. Juho",1,31,9
1,"Strilic, Mr. Ivan",0,27,
0,Strom,0,15.5,
1,"Sunderland, Mr. Victor Francis",1,16,B
1,"Sundman, Mr. Johan Julian",1,44,15
1,"Sutehall, Mr. Henry Jr",0,25,
0,Svensson,1,37.3,13
1,"Tenglin, Mr. Gunnar Isidor",1,25,13 15
1,"Theobald, Mr. Thomas Leonard",0,34,
0,Thomas,2,,"16,14"
1,"Thomson, Mr. Alexander Morrison",0,,
0,Thorneycroft,1,,10
1,"Tikkanen, Mr. Juho",0,32,
1,"Tobin, Mr. Roger",0,,
1,"Todoroff, Mr. Lalio",0,,
1,"Tomlin, Mr. Ernest Portage",0,30,
1,"Torber, Mr. Ernst William",0,44,
1,"Torfa, Mr. Assad",0,,
1,"Tornquist, Mr. William Henry",1,25,15
1,"Toufik, Mr. Nakli",0,,
0,Touma,3,15.0,"C,C,C"
1,"Turcin, Mr. Stjepan",0,36,
1,"Turja, Miss. Anna Sofia",1,18,15
1,"Turkula, Mrs. (Hedwig)",1,63,15
0,van Billiard,0,,
0,Van Impe,0,25.3,
1,"van Melkebeke, Mr. Philemon",0,,
1,"Vande Velde, Mr. Johannes Joseph",0,33,
1,"Vande Walle, Mr. Nestor Cyriel",0,28,
1,"Vanden Steen, Mr. Leo Peter",0,28,
1,"Vander Cruyssen, Mr. Victor",0,47,
0,Vander Planke,0,24.0,
1,"Vartanian, Mr. David",1,22,13 15
1,"Vendel, Mr. Olof Edvin",0,20,
1,"Vestrom, Miss. Hulda Amanda Adolfina",0,14,
1,"Vovk, Mr. Janko",0,22,
1,"Waelens, Mr. Achille",0,22,
1,"Ware, Mr. Frederick",0,,
1,"Warren, Mr. Charles William",0,,
1,"Webber, Mr. James",0,,
1,"Wenzel, Mr. Linhart",0,32,
1,"Whabee, Mrs. George Joseph (Shawneene Abi-Saab)",1,38,C
1,"Widegren, Mr. Carl/Charles Peter",0,51,
0,Wiklund,0,19.5,
1,"Wilkes, Mrs. James (Ellen Needs)",1,47,
1,"Willer, Mr. Aaron (""Abi Weller"")",0,,
1,"Willey, Mr. Edward",0,,
0,Williams,0,,
1,"Windelov, Mr. Einar",0,21,
1,"Wirz, Mr. Albert",0,27,
1,"Wiseman, Mr. Phillippe",0,,
1,"Wittevrongel, Mr. Camille",0,36,
0,Yasbeck,1,21.0,C
1,"Youseff, Mr. Gerious",0,45,
1,"Yousif, Mr. Wazli",0,,
1,"Yousseff, Mr. Gerious",0,,
0,Zabour,0,,
0,Zakarian,0,26.8,
1,"Zimmerman, Mr. Leo",0,29,
